{
  "id": "14719575111",
  "title": "sIT Hackathon",
  "description": "Dies ist die Beschreibung für das Event in ganz ausführlicher Länge",
  "challengeSets": [
    {
      "challengeSetId": "12345",
      "startDate": "1468792800",
      "endDate": "1469397599"
    },
    {
      "challengeSetId": "54321",
      "startDate": "1469397600",
      "endDate": "1470002399"
    },
    {
      "challengeSetId": "678910",
      "startDate": "1470002400",
      "endDate": "1470607199"
    }
  ]
}